test_counter_result.vcd
$comment Generated by nMigen $end
$date 2021-01-04 18:18:36.046744 $end
$timescale 100 ps $end
$scope module top $end
$var wire 1 0 clk $end
$var wire 1 1 rst $end
$var wire 2 2 $signal $end
$var wire 1 3 out $end
$var wire 1 4 input $end
$upscope $end
$enddefinitions $end
#0
$dumpvars
00
01
b0 2
03
04
$end
#5000
10
14
#10000
00
#15000
10
b1 2
#20000
00
#24999
10
b10 2
#29999
00
#34999
10
b0 2
13
#40000
00
#45000
10
b1 2
03
04
#50000
00
#55000
10
#60000
00
#65000
10
#70000
00
#75000
10
#80000
00
#85000
10
#90000
00
#95000
10
14
#100000
00
#105000
10
b10 2
#110000
00
#115000
10
b0 2
13
#120000
00
#125000
10
b1 2
03
#130000
00
#135000
10
b10 2
#140000
00
#145000
10
b0 2
13
#150000
00
#155000
10
b1 2
03
#160000
00
#165000
10
b10 2
