src/vid/example.vcd
$comment Generated by nMigen $end
$date 2020-07-05 22:04:49.299857 $end
$timescale 100 ps $end
$scope module top $end
$var wire 1 0 clk $end
$var wire 1 1 rst $end
$var wire 2 2 counter $end
$var wire 1 3 out_clock $end
$upscope $end
$enddefinitions $end
#0
$dumpvars
00
01
b0 2
03
$end
#5000
10
b1 2
13
#10000
00
#15000
10
b10 2
#20000
00
#24999
10
b11 2
#29999
00
#34999
10
b0 2
#40000
00
#45000
10
b1 2
03
#50000
00
#55000
10
b10 2
#60000
00
#65000
10
b11 2
#70000
00
#75000
10
b0 2
#80000
00
#85000
10
b1 2
13
#90000
00
#95000
10
b10 2
#100000
00
#105000
10
b11 2
#110000
00
#115000
10
b0 2
#120000
00
#125000
10
b1 2
03
#130000
00
#135000
10
b10 2
#140000
00
#145000
10
b11 2
#150000
00
#155000
10
b0 2
#160000
00
#165000
10
b1 2
13
